synthesis/synthesis_1/IICE.vcd
$date
Tue Nov  8 17:06:23 2022
$end
$version
Identify 1.1
$end
$timescale
1 ns
$end
$comment
Written by QT debugger
$end
$scope module top_level $end
$var integer 32 cyc identify_cycle       $end
$var reg     1  clk identify_sampleclock $end
$var reg 1 A tx $end
$var reg 1 B rx $end
$scope module architecture_top_level $end
$var reg 1 C txrdy_s $end
$var reg 1 D parity_err_s $end
$var reg 8 E data_out_s [7:0] $end
$var reg 1 F bit8_s $end
$var reg 1 G framing_err_s $end
$var reg 1 H parity_en_s $end
$var reg 1 I rxrdy_s $end
$var reg 1 J oen_s $end
$var reg 13 K baud_val_s [12:0] $end
$var reg 1 L overflow_s $end
$var reg 1 M wen_s $end
$var reg 1 N csn_s $end
$var reg 1 O odd_n_even_s $end
$var reg 8 P data_in_s [7:0] $end
$scope module uart_reader_i $end
$var reg 1 Q framing_err $end
$var reg 1 R rst $end
$var reg 1 S rxrdy $end
$var reg 1 T wen $end
$var reg 1 U oen $end
$var reg 8 V data_out [7:0] $end
$var reg 1 W led3 $end
$var reg 1 X led1 $end
$var reg 1 Y led2 $end
$var reg 8 Z data_in [7:0] $end
$var reg 1 AB overflow $end
$var reg 1 BB led4 $end
$var reg 1 CB parity_err $end
$upscope $end
$scope module uart_i $end
$var reg 1 DB rx $end
$var reg 1 EB tx $end
$var reg 1 FB rxrdy $end
$upscope $end
$upscope $end
$upscope $end
$enddefinitions $end
#0
1clk
b11111111111111111111111111000010 cyc
1A
1B
0C
0D
b01101010 E
1F
0G
1H
0I
1J
b0000101000101 K
0L
1M
0N
1O
b01101010 P
0Q
1R
0S
1T
1U
b01101010 V
0W
0X
0Y
b01101010 Z
0AB
1BB
0CB
1DB
1EB
0FB
#10
0clk
#20
1clk
b11111111111111111111111111000011 cyc
#30
0clk
#40
1clk
b11111111111111111111111111000100 cyc
#50
0clk
#60
1clk
b11111111111111111111111111000101 cyc
#70
0clk
#80
1clk
b11111111111111111111111111000110 cyc
#90
0clk
#100
1clk
b11111111111111111111111111000111 cyc
#110
0clk
#120
1clk
b11111111111111111111111111001000 cyc
#130
0clk
#140
1clk
b11111111111111111111111111001001 cyc
#150
0clk
#160
1clk
b11111111111111111111111111001010 cyc
#170
0clk
#180
1clk
b11111111111111111111111111001011 cyc
#190
0clk
#200
1clk
b11111111111111111111111111001100 cyc
#210
0clk
#220
1clk
b11111111111111111111111111001101 cyc
#230
0clk
#240
1clk
b11111111111111111111111111001110 cyc
#250
0clk
#260
1clk
b11111111111111111111111111001111 cyc
#270
0clk
#280
1clk
b11111111111111111111111111010000 cyc
#290
0clk
#300
1clk
b11111111111111111111111111010001 cyc
#310
0clk
#320
1clk
b11111111111111111111111111010010 cyc
#330
0clk
#340
1clk
b11111111111111111111111111010011 cyc
#350
0clk
#360
1clk
b11111111111111111111111111010100 cyc
#370
0clk
#380
1clk
b11111111111111111111111111010101 cyc
#390
0clk
#400
1clk
b11111111111111111111111111010110 cyc
#410
0clk
#420
1clk
b11111111111111111111111111010111 cyc
#430
0clk
#440
1clk
b11111111111111111111111111011000 cyc
#450
0clk
#460
1clk
b11111111111111111111111111011001 cyc
#470
0clk
#480
1clk
b11111111111111111111111111011010 cyc
#490
0clk
#500
1clk
b11111111111111111111111111011011 cyc
#510
0clk
#520
1clk
b11111111111111111111111111011100 cyc
#530
0clk
#540
1clk
b11111111111111111111111111011101 cyc
#550
0clk
#560
1clk
b11111111111111111111111111011110 cyc
#570
0clk
#580
1clk
b11111111111111111111111111011111 cyc
#590
0clk
#600
1clk
b11111111111111111111111111100000 cyc
#610
0clk
#620
1clk
b11111111111111111111111111100001 cyc
#630
0clk
#640
1clk
b11111111111111111111111111100010 cyc
#650
0clk
#660
1clk
b11111111111111111111111111100011 cyc
#670
0clk
#680
1clk
b11111111111111111111111111100100 cyc
#690
0clk
#700
1clk
b11111111111111111111111111100101 cyc
#710
0clk
#720
1clk
b11111111111111111111111111100110 cyc
#730
0clk
#740
1clk
b11111111111111111111111111100111 cyc
#750
0clk
#760
1clk
b11111111111111111111111111101000 cyc
#770
0clk
#780
1clk
b11111111111111111111111111101001 cyc
#790
0clk
#800
1clk
b11111111111111111111111111101010 cyc
#810
0clk
#820
1clk
b11111111111111111111111111101011 cyc
#830
0clk
#840
1clk
b11111111111111111111111111101100 cyc
#850
0clk
#860
1clk
b11111111111111111111111111101101 cyc
#870
0clk
#880
1clk
b11111111111111111111111111101110 cyc
#890
0clk
#900
1clk
b11111111111111111111111111101111 cyc
#910
0clk
#920
1clk
b11111111111111111111111111110000 cyc
#930
0clk
#940
1clk
b11111111111111111111111111110001 cyc
#950
0clk
#960
1clk
b11111111111111111111111111110010 cyc
#970
0clk
#980
1clk
b11111111111111111111111111110011 cyc
#990
0clk
#1000
1clk
b11111111111111111111111111110100 cyc
#1010
0clk
#1020
1clk
b11111111111111111111111111110101 cyc
#1030
0clk
#1040
1clk
b11111111111111111111111111110110 cyc
#1050
0clk
#1060
1clk
b11111111111111111111111111110111 cyc
#1070
0clk
#1080
1clk
b11111111111111111111111111111000 cyc
#1090
0clk
#1100
1clk
b11111111111111111111111111111001 cyc
#1110
0clk
#1120
1clk
b11111111111111111111111111111010 cyc
#1130
0clk
#1140
1clk
b11111111111111111111111111111011 cyc
#1150
0clk
#1160
1clk
b11111111111111111111111111111100 cyc
#1170
0clk
#1180
1clk
b11111111111111111111111111111101 cyc
#1190
0clk
#1200
1clk
b11111111111111111111111111111110 cyc
#1210
0clk
#1220
1clk
b11111111111111111111111111111111 cyc
#1230
0clk
#1240
1clk
b00000000000000000000000000000000 cyc
0A
1C
0EB
#1250
0clk
#1260
1clk
b00000000000000000000000000000001 cyc
#1270
0clk
#1280
1clk
b00000000000000000000000000000010 cyc
#1290
0clk
#1300
1clk
b00000000000000000000000000000011 cyc
#1310
0clk
#1320
1clk
b00000000000000000000000000000100 cyc
#1330
0clk
#1340
1clk
b00000000000000000000000000000101 cyc
#1350
0clk
#1360
1clk
b00000000000000000000000000000110 cyc
#1370
0clk
#1380
1clk
b00000000000000000000000000000111 cyc
#1390
0clk
#1400
1clk
b00000000000000000000000000001000 cyc
#1410
0clk
#1420
1clk
b00000000000000000000000000001001 cyc
#1430
0clk
#1440
1clk
b00000000000000000000000000001010 cyc
#1450
0clk
#1460
1clk
b00000000000000000000000000001011 cyc
#1470
0clk
#1480
1clk
b00000000000000000000000000001100 cyc
#1490
0clk
#1500
1clk
b00000000000000000000000000001101 cyc
#1510
0clk
#1520
1clk
b00000000000000000000000000001110 cyc
#1530
0clk
#1540
1clk
b00000000000000000000000000001111 cyc
#1550
0clk
#1560
1clk
b00000000000000000000000000010000 cyc
#1570
0clk
#1580
1clk
b00000000000000000000000000010001 cyc
#1590
0clk
#1600
1clk
b00000000000000000000000000010010 cyc
#1610
0clk
#1620
1clk
b00000000000000000000000000010011 cyc
#1630
0clk
#1640
1clk
b00000000000000000000000000010100 cyc
#1650
0clk
#1660
1clk
b00000000000000000000000000010101 cyc
#1670
0clk
#1680
1clk
b00000000000000000000000000010110 cyc
#1690
0clk
#1700
1clk
b00000000000000000000000000010111 cyc
#1710
0clk
#1720
1clk
b00000000000000000000000000011000 cyc
#1730
0clk
#1740
1clk
b00000000000000000000000000011001 cyc
#1750
0clk
#1760
1clk
b00000000000000000000000000011010 cyc
#1770
0clk
#1780
1clk
b00000000000000000000000000011011 cyc
#1790
0clk
#1800
1clk
b00000000000000000000000000011100 cyc
#1810
0clk
#1820
1clk
b00000000000000000000000000011101 cyc
#1830
0clk
#1840
1clk
b00000000000000000000000000011110 cyc
#1850
0clk
#1860
1clk
b00000000000000000000000000011111 cyc
#1870
0clk
#1880
1clk
b00000000000000000000000000100000 cyc
#1890
0clk
#1900
1clk
b00000000000000000000000000100001 cyc
#1910
0clk
#1920
1clk
b00000000000000000000000000100010 cyc
#1930
0clk
#1940
1clk
b00000000000000000000000000100011 cyc
#1950
0clk
#1960
1clk
b00000000000000000000000000100100 cyc
#1970
0clk
#1980
1clk
b00000000000000000000000000100101 cyc
#1990
0clk
#2000
1clk
b00000000000000000000000000100110 cyc
#2010
0clk
#2020
1clk
b00000000000000000000000000100111 cyc
#2030
0clk
#2040
1clk
b00000000000000000000000000101000 cyc
#2050
0clk
#2060
1clk
b00000000000000000000000000101001 cyc
#2070
0clk
#2080
1clk
b00000000000000000000000000101010 cyc
#2090
0clk
#2100
1clk
b00000000000000000000000000101011 cyc
#2110
0clk
#2120
1clk
b00000000000000000000000000101100 cyc
#2130
0clk
#2140
1clk
b00000000000000000000000000101101 cyc
#2150
0clk
#2160
1clk
b00000000000000000000000000101110 cyc
#2170
0clk
#2180
1clk
b00000000000000000000000000101111 cyc
#2190
0clk
#2200
1clk
b00000000000000000000000000110000 cyc
#2210
0clk
#2220
1clk
b00000000000000000000000000110001 cyc
#2230
0clk
#2240
1clk
b00000000000000000000000000110010 cyc
#2250
0clk
#2260
1clk
b00000000000000000000000000110011 cyc
#2270
0clk
#2280
1clk
b00000000000000000000000000110100 cyc
#2290
0clk
#2300
1clk
b00000000000000000000000000110101 cyc
#2310
0clk
#2320
1clk
b00000000000000000000000000110110 cyc
#2330
0clk
#2340
1clk
b00000000000000000000000000110111 cyc
#2350
0clk
#2360
1clk
b00000000000000000000000000111000 cyc
#2370
0clk
#2380
1clk
b00000000000000000000000000111001 cyc
#2390
0clk
#2400
1clk
b00000000000000000000000000111010 cyc
#2410
0clk
#2420
1clk
b00000000000000000000000000111011 cyc
#2430
0clk
#2440
1clk
b00000000000000000000000000111100 cyc
#2450
0clk
#2460
1clk
b00000000000000000000000000111101 cyc
#2470
0clk
#2480
1clk
b00000000000000000000000000111110 cyc
#2490
0clk
#2500
1clk
b00000000000000000000000000111111 cyc
#2510
0clk
#2520
1clk
b00000000000000000000000001000000 cyc
#2530
0clk
#2540
1clk
b00000000000000000000000001000001 cyc
